…
files_df
```

    ## # A tibble: 160 × 4
    ##    arm   subject_id week  observations
    ##    <chr> <chr>      <chr>        <dbl>
    ##  1 con   01         1             0.2 
    ##  2 con   01         2            -1.31
    ##  3 con   01         3             0.66
    ##  4 con   01         4             1.96
    ##  5 con   01         5             0.23
    ##  6 con   01         6             1.09
    ##  7 con   01         7             0.05
    ##  8 con   01         8             1.94
    ##  9 con   02         1             1.13
    ## 10 con   02         2            -0.88
    ## # … with 150 more rows
…
### Problem 2

First, we imported the data.

``` r
homicides_df = read_csv("data/problem_2/homicide-data.csv") 

homicides_df
```

    ## # A tibble: 52,179 × 12
    ##    uid   repor…¹ victi…² victi…³ victi…⁴ victi…⁵ victi…⁶ city  state   lat   lon
    ##    <chr>   <dbl> <chr>   <chr>   <chr>   <chr>   <chr>   <chr> <chr> <dbl> <dbl>
    ##  1 Alb-…  2.01e7 GARCIA  JUAN    Hispan… 78      Male    Albu… NM     35.1 -107.
    ##  2 Alb-…  2.01e7 MONTOYA CAMERON Hispan… 17      Male    Albu… NM     35.1 -107.
    ##  3 Alb-…  2.01e7 SATTER… VIVIANA White   15      Female  Albu… NM     35.1 -107.
    ##  4 Alb-…  2.01e7 MENDIO… CARLOS  Hispan… 32      Male    Albu… NM     35.1 -107.
    ##  5 Alb-…  2.01e7 MULA    VIVIAN  White   72      Female  Albu… NM     35.1 -107.
    ##  6 Alb-…  2.01e7 BOOK    GERALD… White   91      Female  Albu… NM     35.2 -107.
    ##  7 Alb-…  2.01e7 MALDON… DAVID   Hispan… 52      Male    Albu… NM     35.1 -107.
    ##  8 Alb-…  2.01e7 MALDON… CONNIE  Hispan… 52      Female  Albu… NM     35.1 -107.
    ##  9 Alb-…  2.01e7 MARTIN… GUSTAVO White   56      Male    Albu… NM     35.1 -107.
    ## 10 Alb-…  2.01e7 HERRERA ISRAEL  Hispan… 43      Male    Albu… NM     35.1 -107.
    ## # … with 52,169 more rows, 1 more variable: disposition <chr>, and abbreviated
    ## #   variable names ¹​reported_date, ²​victim_last, ³​victim_first, ⁴​victim_race,
    ## #   ⁵​victim_age, ⁶​victim_sex
…
n_homicides = 
  homicides_df %>% 
  group_by(city_state) %>% 
  summarise(
    n_total_homicides = n()
  )

n_homicides
```

    ## # A tibble: 50 × 2
    ##    city_state      n_total_homicides
    ##    <chr>                       <int>
    ##  1 Albuquerque, NM               378
    ##  2 Atlanta, GA                   973
    ##  3 Baltimore, MD                2827
    ##  4 Baton Rouge, LA               424
    ##  5 Birmingham, AL                800
    ##  6 Boston, MA                    614
    ##  7 Buffalo, NY                   521
    ##  8 Charlotte, NC                 687
    ##  9 Chicago, IL                  5535
    ## 10 Cincinnati, OH                694
    ## # … with 40 more rows

``` r
n_unsolved = 
  homicides_df %>% 
  filter(disposition %in% c("Closed without arrest", "Open/No arrest")) %>% 
  group_by(city_state) %>% 
  summarise(
    n_unsolved_homicides = n()
  )

n_unsolved
```

    ## # A tibble: 50 × 2
    ##    city_state      n_unsolved_homicides
    ##    <chr>                          <int>
    ##  1 Albuquerque, NM                  146
    ##  2 Atlanta, GA                      373
    ##  3 Baltimore, MD                   1825
    ##  4 Baton Rouge, LA                  196
    ##  5 Birmingham, AL                   347
    ##  6 Boston, MA                       310
    ##  7 Buffalo, NY                      319
    ##  8 Charlotte, NC                    206
    ##  9 Chicago, IL                     4073
    ## 10 Cincinnati, OH                   309
    ## # … with 40 more rows

``` r
n_homicides_df = left_join(n_homicides,n_unsolved)

n_homicides_df
```

    ## # A tibble: 50 × 3
    ##    city_state      n_total_homicides n_unsolved_homicides
    ##    <chr>                       <int>                <int>
    ##  1 Albuquerque, NM               378                  146
    ##  2 Atlanta, GA                   973                  373
    ##  3 Baltimore, MD                2827                 1825
    ##  4 Baton Rouge, LA               424                  196
    ##  5 Birmingham, AL                800                  347
    ##  6 Boston, MA                    614                  310
    ##  7 Buffalo, NY                   521                  319
    ##  8 Charlotte, NC                 687                  206
    ##  9 Chicago, IL                  5535                 4073
    ## 10 Cincinnati, OH                694                  309
    ## # … with 40 more rows
…
prop_test_df
```

    ## # A tibble: 50 × 6
    ##    city_state      n_total_homicides n_unsolved_homici…¹ estim…² conf.…³ conf.…⁴
    ##    <chr>                       <int>               <int>   <dbl>   <dbl>   <dbl>
    ##  1 Albuquerque, NM               378                 146   0.386   0.337   0.438
    ##  2 Atlanta, GA                   973                 373   0.383   0.353   0.415
    ##  3 Baltimore, MD                2827                1825   0.646   0.628   0.663
    ##  4 Baton Rouge, LA               424                 196   0.462   0.414   0.511
    ##  5 Birmingham, AL                800                 347   0.434   0.399   0.469
    ##  6 Boston, MA                    614                 310   0.505   0.465   0.545
    ##  7 Buffalo, NY                   521                 319   0.612   0.569   0.654
    ##  8 Charlotte, NC                 687                 206   0.300   0.266   0.336
    ##  9 Chicago, IL                  5535                4073   0.736   0.724   0.747
    ## 10 Cincinnati, OH                694                 309   0.445   0.408   0.483
    ## # … with 40 more rows, and abbreviated variable names ¹​n_unsolved_homicides,
    ## #   ²​estimated_proportion, ³​conf.low, ⁴​conf.high
…
